{
    "presentation" : {
        "firstname" : "Thibaud",
        "lastname" : "Avril-Terrones",
        "age" : 22,
        "title" : "Ingénieur IS/IT",
        "description" : "Passionné par les nouvelles technologies, intéressé par la transformation digitale, l'open innovation et le développement web"
    },
    "education" : [
        {
            "school" : "IAE PARIS-SORBONNE BUSINESS SCHOOL",
            "diploma" : "Master Management et Administration des Entreprises parcours Management général",
            "start_year" : 2019,
            "end_year" : 2021,
            "url": "https://www.iae-paris.com/fr",
            "url_img" : "iae.jpg"
        },
        {
            "school" : "POLYTECH PARIS-SACLAY",
            "diploma" : "Diplôme d'ingénieur spécialité informatique",
            "start_year" : 2017,
            "end_year" : 2020,
            "url": "https://www.polytech.universite-paris-saclay.fr",
            "url_img" : "polytech.jpg"
        },
        {
            "school" : "UNIVERSITE D'ORLEANS",
            "diploma" : "DUT informatique",
            "start_year" : 2015,
            "end_year" : 2017,
            "url": "https://www.univ-orleans.fr/fr/iut-orleans",
            "url_img" : "iut.jpg"
        },
        {
            "school" : "LYCEE JEAN ZAY ORLEANS",
            "diploma" : "Baccalaureat scientifique spécialité mathématiques, section européenne espagnole",
            "start_year" : 2012,
            "end_year" : 2015,
            "url": "http://www.lyceejeanzay.fr/",
            "url_img" : "jeanzay.jpg"
        }
    ],
    "experiences" : [
        {
            "company" : "Groupe Renault",
            "title" : "Apprenti ingénieur informatique",
            "img" : "renault.jpg",
            "description" : "Développement de plusieurs outils au sein du Service Innovation de la Direction Transformation Digitale.",
            "year" : "2017-2020"
        },
        {
            "company" : "Renault Do Brasil",
            "title" : "Stagiaire ingénieur informatique",
            "img" : "saopaulo.jpg",
            "description" : "Participation à un projet de développement avec l'équipe de l'America Digital Hub et identification des pratiques de l'innovation au sein du CUBO.",
            "year" : "2019"
        },
        {
            "company" : "Thales LAS France",
            "title" : "Apprenti développeur informatique",
            "img" : "2r2m.jpg",
            "description" : "Développement d'une application web interactive.",
            "year" : "2016-2017"
        }
    ],
    "languages" : [
        {
            "language":"Français",
            "url_flag":"https://icons.iconarchive.com/icons/wikipedia/flags/256/FR-France-Flag-icon.png",
            "level_nb": 5,
            "level_string": "Courant",
            "certifications":[]
        },
        {
            "language":"Anglais",
            "url_flag":"https://icons.iconarchive.com/icons/wikipedia/flags/1024/GB-United-Kingdom-Flag-icon.png",
            "level_nb": 3,
            "level_string": "Professionnel",
            "certifications":[{
                "name":"TOEIC",
                "score":880
            }]
        },
        {
            "language":"Espagnol",
            "url_flag":"https://icons.iconarchive.com/icons/wikipedia/flags/256/ES-Spain-Flag-icon.png",
            "level_nb": 1,
            "level_string": "Elémentaire",
            "certifications":[]
        }
    ],
    "skills" : {
        "hard_skills": [
            {
                "name":"HTML / CSS",
                "level": 80
            },
            {
                "name":"JavaScript",
                "level": 90
            },
            {
                "name":"Angular",
                "level": 70
            },
            {
                "name":"Node.JS",
                "level": 70
            },
            {
                "name":"Java",
                "level": 50
            }
        ],
        "soft_skills": [
            {
                "name":"Leadership",
                "level": 75
            },
            {
                "name":"Travail d'équipe",
                "level": 90
            },
            {
                "name":"Transformation digitale",
                "level": 60
            },
            {
                "name":"Communication",
                "level": 80
            }
        ]
    }
}